{
    "tracks": [
        {
            "trackNo": "AA0001",
            "identity": "friend",
            "category": "ground",
            "position": "0.00,0.00",
            "altitude": 50.0,
            "speed": 60.0
        },
        {
            "trackNo": "AA0002",
            "identity": "unknown",
            "category": "air",
            "position": "0.00,0.00",
            "altitude": 50.0,
            "speed": 60.0
        },
        {
            "trackNo": "AA0003",
            "identity": "hostile",
            "category": "air",
            "position": "0.00,0.00",
            "altitude": 50.0,
            "speed": 60.0
        }
    

    ]
}